{
   "config":[
      {
         "name":"lastUpdate",
         "value":"24 jun 2023"
      },
      {
         "name":"version",
         "value":204
      },
      {
         "name":"app.appAvailability",
         "value":true
      },
      {
         "name":"app.apiVersion",
         "value":"v6"
      },
      {
         "name":"app.displayVaccination",
         "value":true
      },
      {
         "name":"app.keyfigures.displayDepartmentLevel",
         "value":false
      },
      {
         "name":"app.displayHomeUsefulLinks",
         "value":false
      },
      {
         "name":"app.displayHomeVaccination",
         "value":false
      },
      {
         "name":"app.displayInTheSpotlight",
         "value":false
      },
      {
         "name":"app.displayHomeKeyFigures",
         "value":false
      },
      {
         "name":"app.displayHomeRecommendations",
         "value":false
      },
      {
         "name":"displayEndScreenEveryNbOfDays",
         "value":3
      },
      {
         "name":"app.vaccinationCentersCount",
         "value":30
      },
      {
         "name":"app.displaySanitaryCertificatesWallet",
         "value":true
      },
      {
         "name":"app.walletPubKeys",
         "value":[
            {
               "auth":"FR03",
               "pubKeys":{
                  "AHP1":"-----BEGIN PUBLIC KEY-----MFkwEwYHKoZIzj0CAQYIKoZIzj0DAQcDQgAEPnxJntwNwme9uHSasmGFFwdC0FWNEpucgzhjr+/AZ6UuTm3kL3ogEUAwKU0tShEVmZNK4/lM05h+0ZvtboJM/A==-----END PUBLIC KEY-----",
                  "AHP2":"-----BEGIN PUBLIC KEY-----MFkwEwYHKoZIzj0CAQYIKoZIzj0DAQcDQgAEOYUgmx8pKu0UbyqQ/kt4+PXSpUprkO2YLHmzzoN66XjDW0AnSzXorFPe556p73Vawqaoy3qQKDIDB62IBYWBuA==-----END PUBLIC KEY-----",
                  "AV01":"-----BEGIN PUBLIC KEY-----MFkwEwYHKoZIzj0CAQYIKoZIzj0DAQcDQgAE1T9uG2bEP7uWND6RT/lJs2y787BkEJoRMMLXvqPKFFC3ckqFAPnFjbiv/odlWH04a1P9CvaCRxG31FMEOFZyXA==-----END PUBLIC KEY-----",
                  "AV02":"-----BEGIN PUBLIC KEY-----MFkwEwYHKoZIzj0CAQYIKoZIzj0DAQcDQgAE3jL6zQ0aQj9eJHUw4VDHB9sMoviLVIlADnoBwC43Md8p9w655z2bDhYEEajQ2amQzt+eU7HdWrvqY23Do91Izg==-----END PUBLIC KEY-----",
                  "ING1":"-----BEGIN PUBLIC KEY-----MFkwEwYHKoZIzj0CAQYIKoZIzj0DAQcDQgAEaMOVmK4FAlYeU8tUGpQgtpuLgwSn/arX/4ltKt/wYCole7rB4ECRLtSH4domHU/Z1cjUmVfyGH6NcboWrys9ww==-----END PUBLIC KEY-----"
               }
            }
         ]
      },
      {
         "name":"app.wallet.testCertificateValidityThresholds",
         "value":[
            24,
            48,
            72
         ]
      },
      {
         "name":"app.wallet.maxCertBeforeWarning",
         "value":22
      },
      {
         "name":"app.wallet.dccKids",
         "value":{
            "age":11,
            "s":[
               "🐼",
               "🐰",
               "🐻",
               "🦁",
               "🐱",
               "🐯",
               "🐨"
            ]
         }
      },
      {
         "name":"app.smartwallet.vacc",
         "value":{
            "ar":[
               "EU/1/20/1528",
               "EU/1/20/1507"
            ],
            "ja":[
               "EU/1/20/1525"
            ],
            "az":[
               "EU/1/21/1529",
               "Covidshield",
               "Covid-19-recombinant",
               "R-COVI",
               "R-Covi"
            ]
         }
      },
      {
         "name":"app.smartwallet.notif",
         "value":true
      },
      {
         "name":"app.smartwallet.engine",
         "value":{
            "displayExpDays":21,
            "displayElgDays":60
         }
      },
      {
         "name":"app.smartwallet.notifElgDays",
         "value":30
      },
      {
         "name":"app.displayMultipass",
         "value":false
      },
      {
         "name":"app.multipass.list",
         "value":{
            "testMaxHours":24,
            "maxDcc":4,
            "minDcc":1
         }
      },
      {
         "name":"app.ratingsKeyFiguresOpeningThreshold",
         "value":10
      },
      {
         "name":"app.displayUrgentDgs",
         "value":true
      },
      {
         "name":"app.notif",
         "value":{
            "t":"notif.title",
            "s":"notif.subtitle",
            "u":"notif.url",
            "v":50
         }
      },
      {
         "name":"app.activityPass.generationServerPublicKey",
         "value":"MFkwEwYHKoZIzj0CAQYIKoZIzj0DAQcDQgAEpuWWSr7/9EgjNxg4a7HuvjKtPuV9+M2kXHwLH5GOwRZK5dB6WcvTynfqDagTdCAkQoi6xSojQPsk5LpswjgyXQ=="
      },
      {
         "name":"app.activityPass.skipNegTestHours",
         "value":48
      },
      {
         "name":"app.isSmartwalletOn",
         "value":false
      },
      {
         "name":"app.keyfigures.compareColors",
         "value":[
            {
               "d":"#E17178",
               "l":"#FF6F4D"
            },
            {
               "d":"#70D8FF",
               "l":"#5770BE"
            }
         ]
      },
      {
         "name":"app.keyfigures.compare",
         "value":[
            {
               "t":"keyfigure.compare.7",
               "k1":"tauxincidence",
               "k2":"patientsrea"
            },
            {
               "t":"keyfigure.compare.5",
               "k1":"nombrecas",
               "k2":"deces"
            },
            {
               "t":"keyfigure.compare.4",
               "k1":"nombrecasj3",
               "k2":"tauxoccupation"
            },
            {
               "t":"keyfigure.compare.2",
               "k1":"qrcodes",
               "k2":"notification"
            }
         ]
      },
      {
         "name":"app.blacklistFreqInMinutes",
         "value":1440
      },
      {
         "name":"app.updateFilesAfterDays",
         "value":30
      },
      {
         "name":"app.displayKeyFiguresFrMap",
         "value":true
      },
      {
         "name":"app.minFilesRefreshInterval",
         "value":5
      },
      {
         "name":"app.wallet.confettiBirthRate",
         "value":150.0
      }
   ]
}