[
   {
      "section":"risk.section.positive.title",
      "description":"risk.section.positive.body"
   },
   {
      "section":"isolation.recommendation.initialCaseSafe.title",
      "description":"isolation.recommendation.initialCaseSafe.body"
   },
   {
      "section":"risk.section.measures.title",
      "description":"risk.section.measures.body",
      "link":{
         "label":"risk.section.measures.button",
         "action":"GESTURES",
         "type":"ctrl"
      }
   },
   {
      "section":"risk0.section.test.title",
      "description":"risk0.section.test.body",
      "link":{
         "label":"risk.section.test.button",
         "action":"risk.section.test.url",
         "type":"web"
      }
   }
]